…
```r
# Use map with mutate to manipulate list columns
people_tbl <- people_tbl %>%
  mutate(
    film_numbers = map(films,
      ~ film_number_lookup[.x]),
    n_films = map_int(films, length)
  )

people_tbl %>% dplyr::select(name, film_numbers, n_films)
```

```
## # A tibble: 87 x 3
##                  name film_numbers n_films
##                 <chr>       <list>   <int>
##  1     Luke Skywalker    <dbl [5]>       5
##  2              C-3PO    <dbl [6]>       6
##  3              R2-D2    <dbl [7]>       7
##  4        Darth Vader    <dbl [4]>       4
##  5        Leia Organa    <dbl [5]>       5
##  6          Owen Lars    <dbl [3]>       3
##  7 Beru Whitesun lars    <dbl [3]>       3
##  8              R5-D4    <dbl [1]>       1
##  9  Biggs Darklighter    <dbl [1]>       1
## 10     Obi-Wan Kenobi    <dbl [6]>       6
## # ... with 77 more rows
```
…
e.g. for Luke: "6,3,2,1,7"


```r
# Apply paste0 function to create character vector
people_tbl <- people_tbl %>%
  mutate(films_squashed = map_chr(film_numbers, paste0,
                                  collapse = ", "))

people_tbl %>% dplyr::select(name, n_films, films_squashed)
```

```
## # A tibble: 87 x 3
##                  name n_films      films_squashed
##                 <chr>   <int>               <chr>
##  1     Luke Skywalker       5       6, 3, 2, 1, 7
##  2              C-3PO       6    5, 4, 6, 3, 2, 1
##  3              R2-D2       7 5, 4, 6, 3, 2, 1, 7
##  4        Darth Vader       4          6, 3, 2, 1
##  5        Leia Organa       5       6, 3, 2, 1, 7
##  6          Owen Lars       3             5, 6, 1
##  7 Beru Whitesun lars       3             5, 6, 1
##  8              R5-D4       1                   1
##  9  Biggs Darklighter       1                   1
## 10     Obi-Wan Kenobi       6    5, 4, 6, 3, 2, 1
## # ... with 77 more rows
```
…
