…
```
## [1] "2017-01-31 08:01:00 UTC"
```

#### 16.2.2 From individual components


```r
flights %>% 
  select(year, month, day, hour, minute)
```

```
## # A tibble: 336,776 x 5
##     year month   day  hour minute
##    <int> <int> <int> <dbl>  <dbl>
##  1  2013     1     1     5     15
##  2  2013     1     1     5     29
##  3  2013     1     1     5     40
##  4  2013     1     1     5     45
##  5  2013     1     1     6      0
##  6  2013     1     1     5     58
##  7  2013     1     1     6      0
##  8  2013     1     1     6      0
##  9  2013     1     1     6      0
## 10  2013     1     1     6      0
## # ... with 336,766 more rows
```

To create a date/time from this input, use `make_date()` or `make_datetime()`.


```r
flights %>% 
  select(year, month, day, hour, minute) %>% 
  mutate(departure = make_datetime(year, month, day, hour, minute))
```

```
## # A tibble: 336,776 x 6
##     year month   day  hour minute           departure
##    <int> <int> <int> <dbl>  <dbl>              <dttm>
##  1  2013     1     1     5     15 2013-01-01 05:15:00
##  2  2013     1     1     5     29 2013-01-01 05:29:00
##  3  2013     1     1     5     40 2013-01-01 05:40:00
##  4  2013     1     1     5     45 2013-01-01 05:45:00
##  5  2013     1     1     6      0 2013-01-01 06:00:00
##  6  2013     1     1     5     58 2013-01-01 05:58:00
##  7  2013     1     1     6      0 2013-01-01 06:00:00
##  8  2013     1     1     6      0 2013-01-01 06:00:00
##  9  2013     1     1     6      0 2013-01-01 06:00:00
## 10  2013     1     1     6      0 2013-01-01 06:00:00
## # ... with 336,766 more rows
```
…
2. Compare `dep_time`, `sched_dep_time` and `dep_delay`. Are they consistent? Explain your findings.

If they are consistent, `dep_time = sched_dep_time + dep_delay`.


```r
flights_dt %>%
  mutate(dep_time_ = sched_dep_time + dep_delay * 60) %>%
  filter(dep_time_ != dep_time) %>%
  select(dep_time_, dep_time, sched_dep_time, dep_delay)
```

```
## # A tibble: 1,205 x 4
##              dep_time_            dep_time      sched_dep_time dep_delay
##                 <dttm>              <dttm>              <dttm>     <dbl>
##  1 2013-01-02 08:48:00 2013-01-01 08:48:00 2013-01-01 18:35:00       853
##  2 2013-01-03 00:42:00 2013-01-02 00:42:00 2013-01-02 23:59:00        43
##  3 2013-01-03 01:26:00 2013-01-02 01:26:00 2013-01-02 22:50:00       156
##  4 2013-01-04 00:32:00 2013-01-03 00:32:00 2013-01-03 23:59:00        33
##  5 2013-01-04 00:50:00 2013-01-03 00:50:00 2013-01-03 21:45:00       185
##  6 2013-01-04 02:35:00 2013-01-03 02:35:00 2013-01-03 23:59:00       156
##  7 2013-01-05 00:25:00 2013-01-04 00:25:00 2013-01-04 23:59:00        26
##  8 2013-01-05 01:06:00 2013-01-04 01:06:00 2013-01-04 22:45:00       141
##  9 2013-01-06 00:14:00 2013-01-05 00:14:00 2013-01-05 23:59:00        15
## 10 2013-01-06 00:37:00 2013-01-05 00:37:00 2013-01-05 22:30:00       127
## # ... with 1,195 more rows
```
There are discrepancies. These are flights in whihc the actual departure time is on the next day relative to the scheduled departure time.

3. Compare `air_time` with the duration between the departure and arrival. Explain your findings


```r
flights_dt %>%
  mutate(flight_duration = as.numeric(arr_time - dep_time),
         air_time_mins = air_time,
         diff = flight_duration - air_time_mins) %>%
  select(origin, dest, flight_duration, air_time_mins, diff)
```

```
## # A tibble: 328,063 x 5
##    origin  dest flight_duration air_time_mins  diff
##     <chr> <chr>           <dbl>         <dbl> <dbl>
##  1    EWR   IAH             193           227   -34
##  2    LGA   IAH             197           227   -30
##  3    JFK   MIA             221           160    61
##  4    JFK   BQN             260           183    77
##  5    LGA   ATL             138           116    22
##  6    EWR   ORD             106           150   -44
##  7    EWR   FLL             198           158    40
##  8    LGA   IAD              72            53    19
##  9    JFK   MCO             161           140    21
## 10    LGA   ORD             115           138   -23
## # ... with 328,053 more rows
```
…
