…
```
## filter(): dplyr, stats
## lag():    dplyr, stats
```

In order to coerce a data frame into a tibble. You can do that with `as_tibble()`:


```r
as_tibble(iris)
```

```
## # A tibble: 150 x 5
##    Sepal.Length Sepal.Width Petal.Length Petal.Width Species
##           <dbl>       <dbl>        <dbl>       <dbl>  <fctr>
##  1          5.1         3.5          1.4         0.2  setosa
##  2          4.9         3.0          1.4         0.2  setosa
##  3          4.7         3.2          1.3         0.2  setosa
##  4          4.6         3.1          1.5         0.2  setosa
##  5          5.0         3.6          1.4         0.2  setosa
##  6          5.4         3.9          1.7         0.4  setosa
##  7          4.6         3.4          1.4         0.3  setosa
##  8          5.0         3.4          1.5         0.2  setosa
##  9          4.4         2.9          1.4         0.2  setosa
## 10          4.9         3.1          1.5         0.1  setosa
## # ... with 140 more rows
```
…
Tibbles have a refined print method that shows only the first 10 rows, and all the columns that fit on screen. In addition to its name, each column reports its type, a nice feature borrowed from `str()`:


```r
tibble(
  a = lubridate::now() + runif(1e3) * 86400,
  b = lubridate::today() + runif(1e3) * 30,
  c = 1:1e3,
  d = runif(1e3),
  e = sample(letters, 1e3, replace = TRUE)
)
```

```
## # A tibble: 1,000 x 5
##                      a          b     c          d     e
##                 <dttm>     <date> <int>      <dbl> <chr>
##  1 2017-09-05 17:31:55 2017-09-30     1 0.45852380     w
##  2 2017-09-05 17:59:58 2017-09-12     2 0.83509501     f
##  3 2017-09-06 08:25:13 2017-09-15     3 0.59748707     k
##  4 2017-09-06 03:56:03 2017-09-12     4 0.18331997     a
##  5 2017-09-06 00:32:30 2017-09-23     5 0.30841463     b
##  6 2017-09-06 11:39:41 2017-09-06     6 0.18402952     b
##  7 2017-09-06 10:35:26 2017-09-27     7 0.37666282     y
##  8 2017-09-06 06:17:31 2017-09-14     8 0.49977366     j
##  9 2017-09-05 23:55:10 2017-09-26     9 0.08783385     x
## 10 2017-09-06 10:44:20 2017-09-09    10 0.55199030     o
## # ... with 990 more rows
```
…
