…
```
## [1] "Dec" "Apr" "Jan" "Mar"
```

### 15.3 General Social Survey


```r
gss_cat
```

```
## # A tibble: 21,483 x 9
##     year       marital   age   race        rincome            partyid
##    <int>        <fctr> <int> <fctr>         <fctr>             <fctr>
##  1  2000 Never married    26  White  $8000 to 9999       Ind,near rep
##  2  2000      Divorced    48  White  $8000 to 9999 Not str republican
##  3  2000       Widowed    67  White Not applicable        Independent
##  4  2000 Never married    39  White Not applicable       Ind,near rep
##  5  2000      Divorced    25  White Not applicable   Not str democrat
##  6  2000       Married    25  White $20000 - 24999    Strong democrat
##  7  2000 Never married    36  White $25000 or more Not str republican
##  8  2000      Divorced    44  White  $7000 to 7999       Ind,near dem
##  9  2000       Married    44  White $25000 or more   Not str democrat
## 10  2000       Married    47  White $25000 or more  Strong republican
## # ... with 21,473 more rows, and 3 more variables: relig <fctr>,
## #   denom <fctr>, tvhours <int>
```
…
